^D:\_LEAP\EXAMEN_UNREAL\PREGUNTA_8\PREGUNTA_8\ATTACK.CPP
/c /ZI /JMC /nologo /W3 /WX- /diagnostics:column /sdl /Od /D _DEBUG /D _CONSOLE /D _UNICODE /D UNICODE /Gm- /EHsc /RTC1 /MDd /GS /fp:precise /permissive- /Zc:wchar_t /Zc:forScope /Zc:inline /Fo"X64\DEBUG\\" /Fd"X64\DEBUG\VC142.PDB" /Gd /TP /FC D:\_LEAP\EXAMEN_UNREAL\PREGUNTA_8\PREGUNTA_8\ATTACK.CPP
^D:\_LEAP\EXAMEN_UNREAL\PREGUNTA_8\PREGUNTA_8\ENEMY.CPP
/c /ZI /JMC /nologo /W3 /WX- /diagnostics:column /sdl /Od /D _DEBUG /D _CONSOLE /D _UNICODE /D UNICODE /Gm- /EHsc /RTC1 /MDd /GS /fp:precise /permissive- /Zc:wchar_t /Zc:forScope /Zc:inline /Fo"X64\DEBUG\\" /Fd"X64\DEBUG\VC142.PDB" /Gd /TP /FC D:\_LEAP\EXAMEN_UNREAL\PREGUNTA_8\PREGUNTA_8\ENEMY.CPP
^D:\_LEAP\EXAMEN_UNREAL\PREGUNTA_8\PREGUNTA_8\ORCHESTRADIRECTOR.CPP
/c /ZI /JMC /nologo /W3 /WX- /diagnostics:column /sdl /Od /D _DEBUG /D _CONSOLE /D _UNICODE /D UNICODE /Gm- /EHsc /RTC1 /MDd /GS /fp:precise /permissive- /Zc:wchar_t /Zc:forScope /Zc:inline /Fo"X64\DEBUG\\" /Fd"X64\DEBUG\VC142.PDB" /Gd /TP /FC D:\_LEAP\EXAMEN_UNREAL\PREGUNTA_8\PREGUNTA_8\ORCHESTRADIRECTOR.CPP
^D:\_LEAP\EXAMEN_UNREAL\PREGUNTA_8\PREGUNTA_8\PREGUNTA_8.CPP
/c /ZI /JMC /nologo /W3 /WX- /diagnostics:column /sdl /Od /D _DEBUG /D _CONSOLE /D _UNICODE /D UNICODE /Gm- /EHsc /RTC1 /MDd /GS /fp:precise /permissive- /Zc:wchar_t /Zc:forScope /Zc:inline /Fo"X64\DEBUG\\" /Fd"X64\DEBUG\VC142.PDB" /Gd /TP /FC D:\_LEAP\EXAMEN_UNREAL\PREGUNTA_8\PREGUNTA_8\PREGUNTA_8.CPP
