^D:\_Leap\examen_unreal\empty\Pregunta_3\Pregunta_3\Pregunta_3.vcxproj
D:\_Leap\examen_unreal\empty\Pregunta_3\Pregunta_3\Debug\Pregunta_3.Form1.resources
^D:\_Leap\examen_unreal\empty\Pregunta_3\Pregunta_3\Pregunta_3.vcxproj
D:\_Leap\examen_unreal\empty\Pregunta_3\Pregunta_3\Debug\Pregunta_3.Form1.resources
^D:\_Leap\examen_unreal\empty\Pregunta_3\Pregunta_3\Pregunta_3.vcxproj
D:\_Leap\examen_unreal\empty\Pregunta_3\Pregunta_3\Debug\Pregunta_3.Form1.resources
^D:\_Leap\examen_unreal\empty\Pregunta_3\Pregunta_3\Pregunta_3.vcxproj
D:\_Leap\examen_unreal\empty\Pregunta_3\Pregunta_3\Debug\Pregunta_3.Form1.resources
^D:\_Leap\examen_unreal\empty\Pregunta_3\Pregunta_3\Pregunta_3.vcxproj
D:\_Leap\examen_unreal\empty\Pregunta_3\Pregunta_3\Debug\Pregunta_3.Form1.resources
^D:\_Leap\examen_unreal\empty\Pregunta_3\Pregunta_3\Pregunta_3.vcxproj
D:\_Leap\examen_unreal\empty\Pregunta_3\Pregunta_3\Debug\Pregunta_3.Form1.resources
^D:\_Leap\examen_unreal\empty\Pregunta_3\Pregunta_3\Pregunta_3.vcxproj
D:\_Leap\examen_unreal\empty\Pregunta_3\Pregunta_3\Debug\Pregunta_3.Form1.resources
^D:\_Leap\examen_unreal\empty\Pregunta_3\Pregunta_3\Pregunta_3.vcxproj
D:\_Leap\examen_unreal\empty\Pregunta_3\Pregunta_3\Debug\Pregunta_3.Form1.resources
^D:\_Leap\examen_unreal\empty\Pregunta_3\Pregunta_3\Pregunta_3.vcxproj
D:\_Leap\examen_unreal\empty\Pregunta_3\Pregunta_3\Debug\Pregunta_3.Form1.resources
^D:\_Leap\examen_unreal\empty\Pregunta_3\Pregunta_3\Pregunta_3.vcxproj
D:\_Leap\examen_unreal\empty\Pregunta_3\Pregunta_3\Debug\Pregunta_3.Form1.resources
^D:\_Leap\examen_unreal\empty\Pregunta_3\Pregunta_3\Pregunta_3.vcxproj
D:\_Leap\examen_unreal\empty\Pregunta_3\Pregunta_3\Debug\Pregunta_3.Form1.resources
^D:\_Leap\examen_unreal\empty\Pregunta_3\Pregunta_3\Pregunta_3.vcxproj
D:\_Leap\examen_unreal\empty\Pregunta_3\Pregunta_3\Debug\Pregunta_3.Form1.resources
^D:\_Leap\examen_unreal\empty\Pregunta_3\Pregunta_3\Pregunta_3.vcxproj
D:\_Leap\examen_unreal\empty\Pregunta_3\Pregunta_3\Debug\Pregunta_3.Form1.resources
^D:\_Leap\examen_unreal\empty\Pregunta_3\Pregunta_3\Pregunta_3.vcxproj
D:\_Leap\examen_unreal\empty\Pregunta_3\Pregunta_3\Debug\Pregunta_3.Form1.resources
^D:\_Leap\examen_unreal\empty\Pregunta_3\Pregunta_3\Pregunta_3.vcxproj
D:\_Leap\examen_unreal\empty\Pregunta_3\Pregunta_3\Debug\Pregunta_3.Form1.resources
^D:\_Leap\examen_unreal\empty\Pregunta_3\Pregunta_3\Pregunta_3.vcxproj
D:\_Leap\examen_unreal\empty\Pregunta_3\Pregunta_3\Debug\Pregunta_3.Form1.resources
^D:\_Leap\examen_unreal\empty\Pregunta_3\Pregunta_3\Pregunta_3.vcxproj
D:\_Leap\examen_unreal\empty\Pregunta_3\Pregunta_3\Debug\Pregunta_3.Form1.resources
^D:\_Leap\examen_unreal\empty\Pregunta_3\Pregunta_3\Pregunta_3.vcxproj
D:\_Leap\examen_unreal\empty\Pregunta_3\Pregunta_3\Debug\Pregunta_3.Form1.resources
^D:\_Leap\examen_unreal\empty\Pregunta_3\Pregunta_3\Pregunta_3.vcxproj
D:\_Leap\examen_unreal\empty\Pregunta_3\Pregunta_3\Debug\Pregunta_3.Form1.resources
^D:\_Leap\examen_unreal\empty\Pregunta_3\Pregunta_3\Pregunta_3.vcxproj
D:\_Leap\examen_unreal\empty\Pregunta_3\Pregunta_3\Debug\Pregunta_3.Form1.resources
^D:\_Leap\examen_unreal\empty\Pregunta_3\Pregunta_3\Pregunta_3.vcxproj
D:\_Leap\examen_unreal\empty\Pregunta_3\Pregunta_3\Debug\Pregunta_3.Form1.resources
^D:\_Leap\examen_unreal\empty\Pregunta_3\Pregunta_3\Pregunta_3.vcxproj
D:\_Leap\examen_unreal\empty\Pregunta_3\Pregunta_3\Debug\Pregunta_3.Form1.resources
^D:\_Leap\examen_unreal\empty\Pregunta_3\Pregunta_3\Pregunta_3.vcxproj
D:\_Leap\examen_unreal\empty\Pregunta_3\Pregunta_3\Debug\Pregunta_3.Form1.resources
^D:\_Leap\examen_unreal\empty\Pregunta_3\Pregunta_3\Pregunta_3.vcxproj
D:\_Leap\examen_unreal\empty\Pregunta_3\Pregunta_3\Debug\Pregunta_3.Form1.resources
^D:\_Leap\examen_unreal\empty\Pregunta_3\Pregunta_3\Pregunta_3.vcxproj
D:\_Leap\examen_unreal\empty\Pregunta_3\Pregunta_3\Debug\Pregunta_3.Form1.resources
^D:\_Leap\examen_unreal\empty\Pregunta_3\Pregunta_3\Pregunta_3.vcxproj
D:\_Leap\examen_unreal\empty\Pregunta_3\Pregunta_3\Debug\Pregunta_3.Form1.resources
^D:\_Leap\examen_unreal\empty\Pregunta_3\Pregunta_3\Pregunta_3.vcxproj
D:\_Leap\examen_unreal\empty\Pregunta_3\Pregunta_3\Debug\Pregunta_3.Form1.resources
^D:\_Leap\examen_unreal\empty\Pregunta_3\Pregunta_3\Pregunta_3.vcxproj
D:\_Leap\examen_unreal\empty\Pregunta_3\Pregunta_3\Debug\Pregunta_3.Form1.resources
^D:\_Leap\examen_unreal\empty\Pregunta_3\Pregunta_3\Pregunta_3.vcxproj
D:\_Leap\examen_unreal\empty\Pregunta_3\Pregunta_3\Debug\Pregunta_3.Form1.resources
