^D:\_LEAP\EXAMEN_UNREAL\PREGUNTA_5\PREGUNTA_5\PREGUNTA_5.CPP
D:\_LEAP\EXAMEN_UNREAL\PREGUNTA_5\PREGUNTA_5\DEBUG\VC142.PDB
D:\_LEAP\EXAMEN_UNREAL\PREGUNTA_5\PREGUNTA_5\DEBUG\VC142.IDB
D:\_LEAP\EXAMEN_UNREAL\PREGUNTA_5\PREGUNTA_5\DEBUG\PREGUNTA_5.OBJ
